{
  "buildFiles": [
    "/home/bjit/Projects/game/NokiaSnake/Library/Bee/Android/Prj/IL2CPP/Gradle/unityLibrary/src/main/cpp/CMakeLists.txt",
    "/home/bjit/Projects/game/NokiaSnake/Library/Bee/Android/Prj/IL2CPP/Gradle/unityLibrary/src/main/cpp/FramePacing/CMakeLists.txt"
  ],
  "cleanCommandsComponents": [
    [
      "/home/bjit/Unity/Hub/Editor/2023.1.20f1/Editor/Data/PlaybackEngines/AndroidPlayer/SDK/cmake/3.22.1/bin/ninja",
      "-C",
      "/home/bjit/Projects/game/NokiaSnake/.utmp/RelWithDebInfo/43v1rs4d/armeabi-v7a",
      "clean"
    ]
  ],
  "buildTargetsCommandComponents": [
    "/home/bjit/Unity/Hub/Editor/2023.1.20f1/Editor/Data/PlaybackEngines/AndroidPlayer/SDK/cmake/3.22.1/bin/ninja",
    "-C",
    "/home/bjit/Projects/game/NokiaSnake/.utmp/RelWithDebInfo/43v1rs4d/armeabi-v7a",
    "{LIST_OF_TARGETS_TO_BUILD}"
  ],
  "libraries": {
    "swappywrapper::@7e25bd1f32ce224db4e9": {
      "toolchain": "toolchain",
      "abi": "armeabi-v7a",
      "artifactName": "swappywrapper",
      "output": "/home/bjit/Projects/game/NokiaSnake/Library/Bee/Android/Prj/IL2CPP/Gradle/unityLibrary/build/intermediates/cxx/RelWithDebInfo/43v1rs4d/obj/armeabi-v7a/libswappywrapper.so",
      "runtimeFiles": []
    }
  },
  "toolchains": {
    "toolchain": {
      "cCompilerExecutable": "/home/bjit/Unity/Hub/Editor/2023.1.20f1/Editor/Data/PlaybackEngines/AndroidPlayer/NDK/toolchains/llvm/prebuilt/linux-x86_64/bin/clang.lld",
      "cppCompilerExecutable": "/home/bjit/Unity/Hub/Editor/2023.1.20f1/Editor/Data/PlaybackEngines/AndroidPlayer/NDK/toolchains/llvm/prebuilt/linux-x86_64/bin/clang++.lld"
    }
  },
  "cFileExtensions": [],
  "cppFileExtensions": [
    "cpp"
  ]
}